src/tb/dump.vcd
$date
	Sat Sep 13 13:36:32 2025
$end

$version
	Synopsys VCS version Q-2020.03-SP2-8
$end

$timescale
	1ns
$end

$comment Csum: 1 6bf0c4bd8bf0ee55 $end


$scope module $unit $end
$upscope $end


$scope module cpu_top $end
$var reg 1 ! clk $end
$var reg 1 " rst $end

$scope begin unnamed$$_vcs_0 $end
$upscope $end


$scope begin unnamed$$_vcs_1 $end
$upscope $end


$scope begin unnamed$$_vcs_2 $end
$upscope $end


$scope module vif $end
$var reg 1 # clk $end
$var reg 1 $ pmWrEn $end
$var reg 8 % instructionIn [7:0] $end
$var reg 7 & pm_addr [6:0] $end
$var reg 8 ' alu_result [7:0] $end
$var reg 1 ( rst $end
$upscope $end


$scope module dut $end
$var wire 1 ) clk $end
$var wire 1 * rst $end
$var wire 1 + pmWrEn $end
$var wire 8 , instructionIn [7:0] $end
$var wire 7 - pm_addr [6:0] $end
$var wire 8 . alu_result [7:0] $end
$var wire 7 / pointer [6:0] $end
$var wire 32 0 instruction [31:0] $end
$var wire 32 1 next_ins_w [31:0] $end
$var wire 1 2 reg_wen_w $end
$var wire 1 3 data_imm_sel_w $end
$var wire 4 4 alu_op_w [3:0] $end
$var wire 8 5 read_data1_w [7:0] $end
$var wire 8 6 read_data2_w [7:0] $end
$var wire 3 7 func3_out [2:0] $end
$var wire 5 8 r_reg1_out [4:0] $end
$var wire 5 9 r_reg2_out [4:0] $end
$var wire 5 : wr_reg_dec_w [4:0] $end
$var wire 7 ; func7_out [6:0] $end
$var wire 7 < opcode_out [6:0] $end
$var wire 7 = opcode_out_reg [6:0] $end
$var wire 8 > immediate_data_dec_w [7:0] $end
$var wire 8 ? alu_result_w [7:0] $end
$var wire 1 @ reg_wen_wb_w $end
$var wire 5 A wr_reg_wb_w [4:0] $end
$var wire 8 B alu_result_wb_w [7:0] $end
$var wire 8 C mux_out_w [7:0] $end
$var wire 1 D op1_select $end
$var wire 1 E op2_select $end
$var wire 8 F mux_out_op1 [7:0] $end
$var wire 8 G mux_out_op2 [7:0] $end
$var wire 8 H output_data [7:0] $end
$var wire 8 . alu_reset_output [7:0] $end

$scope module program_memory_inst1 $end
$var wire 1 ) clk $end
$var wire 1 + wrEn $end
$var wire 7 / readAdd [6:0] $end
$var wire 7 - writeAdd [6:0] $end
$var wire 8 , writeData [7:0] $end
$var wire 32 0 instruction [31:0] $end
$upscope $end


$scope module program_counter_inst2 $end
$var wire 1 ) clk $end
$var wire 1 * rst $end
$var wire 1 I condition $end
$var wire 3 J function_3 [2:0] $end
$var wire 7 K pc_scr [6:0] $end
$var wire 7 L jump_add [6:0] $end
$var reg 7 / current_ins_add [6:0] $end
$var wire 7 M next_ins_add [6:0] $end
$upscope $end


$scope module fetch_stage_inst3 $end
$var wire 1 ) clk $end
$var wire 32 0 current_ins [31:0] $end
$var reg 32 1 next_ins [31:0] $end
$upscope $end


$scope module decode_stage_inst $end
$var wire 1 ) clk $end
$var wire 3 N func3 [2:0] $end
$var wire 5 O r_reg1 [4:0] $end
$var wire 5 P r_reg2 [4:0] $end
$var wire 5 Q wr_reg [4:0] $end
$var wire 7 R func7 [6:0] $end
$var wire 7 S opcode [6:0] $end
$var wire 8 T immediate_data [7:0] $end
$var reg 3 7 func3_out [2:0] $end
$var reg 5 8 r_reg1_out [4:0] $end
$var reg 5 9 r_reg2_out [4:0] $end
$var reg 5 : wr_reg_out [4:0] $end
$var reg 7 ; func7_out [6:0] $end
$var reg 7 < opcode_out [6:0] $end
$var reg 8 > immediate_data_out [7:0] $end
$var reg 8 U immediate_temp [7:0] $end
$upscope $end


$scope module dff $end
$var wire 1 ) clk $end
$var wire 1 * rst $end
$var wire 7 < d [6:0] $end
$var reg 7 = q [6:0] $end
$upscope $end


$scope module control_unit_inst $end
$var wire 3 7 func3 [2:0] $end
$var wire 7 ; func7 [6:0] $end
$var wire 7 < opcode [6:0] $end
$var reg 1 2 reg_wen $end
$var reg 1 3 data_imm_sel $end
$var reg 4 4 alu_op [3:0] $end
$upscope $end


$scope module reg_bank_inst $end
$var wire 1 ) clk $end
$var wire 1 @ w_en $end
$var wire 5 8 r_reg1 [4:0] $end
$var wire 5 9 r_reg2 [4:0] $end
$var wire 5 A w_reg [4:0] $end
$var wire 8 B w_data [7:0] $end
$var wire 8 5 read_data1 [7:0] $end
$var wire 8 6 read_data2 [7:0] $end
$var wire 8 H output_data [7:0] $end
$upscope $end


$scope module data_forward_inst $end
$var wire 5 8 r_reg1 [4:0] $end
$var wire 5 9 r_reg2 [4:0] $end
$var wire 5 A w_reg [4:0] $end
$var reg 1 D op1_select $end
$var reg 1 E op2_select $end
$upscope $end


$scope module op1_select_inst $end
$var wire 1 D sel $end
$var wire 8 5 i0 [7:0] $end
$var wire 8 B i1 [7:0] $end
$var wire 8 F mux_out [7:0] $end
$upscope $end


$scope module op2_select_inst $end
$var wire 1 E sel $end
$var wire 8 6 i0 [7:0] $end
$var wire 8 B i1 [7:0] $end
$var wire 8 G mux_out [7:0] $end
$upscope $end


$scope module data_store_sel_mux $end
$var wire 1 3 sel $end
$var wire 8 G i0 [7:0] $end
$var wire 8 > i1 [7:0] $end
$var wire 8 C mux_out [7:0] $end
$upscope $end


$scope module alu_output_sel_mux $end
$var wire 1 V sel $end
$var wire 8 B i0 [7:0] $end
$var wire 8 H i1 [7:0] $end
$var wire 8 . mux_out [7:0] $end
$upscope $end


$scope module alu_inst $end
$var wire 4 4 alu_op [3:0] $end
$var wire 8 F op1 [7:0] $end
$var wire 8 C op2 [7:0] $end
$var reg 8 ? out [7:0] $end
$upscope $end


$scope module writeback_stage_inst $end
$var wire 1 ) clk $end
$var wire 1 2 reg_wen $end
$var wire 5 : wr_reg [4:0] $end
$var wire 8 ? alu_result [7:0] $end
$var reg 1 @ reg_wen_out $end
$var reg 5 A wr_reg_out [4:0] $end
$var reg 8 B alu_result_out [7:0] $end
$upscope $end

$upscope $end

$upscope $end


$scope module uvm_pkg $end
$var reg 32 W UVM_UNBOUNDED_CONNECTIONS [31:0] $end
$var reg 1 X uvm_start_uvm_declarations $end
$var time 64 Y setting_offset $end
$var reg 32 Z setting_verbosity [31:0] $end
$var reg 1 [ is_verdi_set_verbosity_called $end
$var reg 32 \ uvm_global_random_seed [31:0] $end
$var reg 1 ] is_uvm_factory_trace_checked $end
$var reg 1 ^ is_verdi_trace_fac $end
$upscope $end

$enddefinitions $end

#0
$dumpvars
1]
0[
0^
1X
bxxxxxxxxxxxxxxxxxxxxxxxxxxxxxxxxxxxxxxxxxxxxxxxxxxxxxxxxxxxxxxxx Y
b11111111111111111111111111111111 W
b00000000000000000000000000000000 Z
b01000010000001111100110001000111 \
0!
1"
bxxxxxxxx '
bxxxxxxx &
bxxxxxxxx %
xD
xE
x3
x2
x@
xV
xI
bxxxx 4
bxxxxxxxx B
b0000000 /
bxxx 7
bxxxxxxx ;
bxxxxxxx <
bxxxxx 8
bxxxxx 9
bxxxxxxxx >
bxxxxxxxx U
bxxxxxxxxxxxxxxxxxxxxxxxxxxxxxxxx 0
bxxxxxxxx F
bxxxxxxxx C
bxxxxxxxxxxxxxxxxxxxxxxxxxxxxxxxx 1
b0000100 M
b00000000 ?
bxxxxxxxx H
bxxxxxxx =
bxxxxxxxx 5
bxxxxxxxx 6
bxxxxxxxx G
bxxxxxxx K
bxxx J
bxxxxxxx L
bxxxxxxxx T
bxxxxx O
bxxxxx P
bxxxxx Q
bxxx N
bxxxxxxx R
bxxxxxxx S
bxxxxx :
bxxxxx A
0)
1*
bxxxxxxxx ,
bxxxxxxx -
bxxxxxxxx .
x+
0#
1(
x$
$end
0I
#5
1!
1)
1#
b0000100 /
b0001000 M
b00000000 B
#6
1$
1+
b1110110 &
b00010011 %
b1110110 -
b00010011 ,
#10
0!
0)
0#
#15
1!
1)
1#
b0001000 /
b0001100 M
#16
b1111011 &
b00000011 %
b1111011 -
b00000011 ,
#20
0"
0*
0(
0!
0)
0#
b0000000 =
0V
b00000000 .
b00000000 '
#25
1!
1)
1#
b0000000 /
b0000100 M
#26
b1001101 &
b00100011 %
b1001101 -
b00100011 ,
#30
0!
0)
0#
#35
1!
1)
1#
#36
b1101110 &
b01111111 %
b1101110 -
b01111111 ,
